{
	"info": {
		"_postman_id": "9bdf0b42-e85c-4812-9283-c4b156c8a692",
		"name": "CulinaryAntidote",
		"schema": "https://schema.getpostman.com/json/collection/v2.1.0/collection.json"
	},
	"item": [
		{
			"name": "OAuth",
			"item": [
				{
					"name": "Get token",
					"request": {
						"auth": {
							"type": "basic",
							"basic": [
								{
									"key": "password",
									"value": "secret",
									"type": "string"
								},
								{
									"key": "username",
									"value": "client",
									"type": "string"
								}
							]
						},
						"method": "POST",
						"header": [
							{
								"key": "Content-Type",
								"name": "Content-Type",
								"value": "application/x-www-form-urlencoded",
								"type": "text"
							}
						],
						"body": {
							"mode": "urlencoded",
							"urlencoded": [
								{
									"key": "grant_type",
									"value": "password",
									"type": "text"
								},
								{
									"key": "username",
									"value": "a.buczylo@gmail.com",
									"type": "text"
								},
								{
									"key": "password",
									"value": "Password1234",
									"type": "text"
								},
								{
									"key": "client_id",
									"value": "client",
									"type": "text"
								},
								{
									"key": "client_secret",
									"value": "secret",
									"type": "text"
								},
								{
									"key": "scope",
									"value": "read write",
									"type": "text"
								}
							]
						},
						"url": {
							"raw": "{{unsecureBaseUrl}}/oauth/token",
							"host": [
								"{{unsecureBaseUrl}}"
							],
							"path": [
								"oauth",
								"token"
							]
						}
					},
					"response": []
				}
			],
			"protocolProfileBehavior": {}
		},
		{
			"name": "Users",
			"item": [
				{
					"name": "Create user",
					"request": {
						"method": "POST",
						"header": [
							{
								"key": "Content-Type",
								"name": "Content-Type",
								"value": "application/json",
								"type": "text"
							}
						],
						"body": {
							"mode": "raw",
							"raw": "{\n\t\"email\": \"a.buczylo@gmail.com\",\n\t\"password\": \"Password1234\",\n\t\"firstName\": \"Joanna\",\n\t\"lastName\": \"Buczyło\"\n}",
							"options": {
								"raw": {
									"language": "json"
								}
							}
						},
						"url": {
							"raw": "{{unsecureBaseUrl}}/users",
							"host": [
								"{{unsecureBaseUrl}}"
							],
							"path": [
								"users"
							]
						}
					},
					"response": []
				},
				{
					"name": "Get users",
					"request": {
						"method": "GET",
						"header": [
							{
								"key": "Authorization",
								"value": "Bearer eyJhbGciOiJIUzI1NiIsInR5cCI6IkpXVCJ9.eyJleHAiOjE1Nzk2NjE1MzMsInVzZXJfbmFtZSI6ImEuYnVjenlsb0BnbWFpbC5jb20iLCJhdXRob3JpdGllcyI6WyJST0xFX0FkbWluIiwiUk9MRV9Vc2VyIl0sImp0aSI6IjBmZGQxODIyLTdmNmEtNDk5OS05NTM2LTUzYzUxODMxYmMyMSIsImNsaWVudF9pZCI6ImNsaWVudCIsInNjb3BlIjpbInJlYWQiLCJ3cml0ZSJdfQ.rsaDPK8PZwIesfn1-d42jPz0SwRgRuioqgARlcyIAow",
								"type": "text"
							}
						],
						"url": {
							"raw": "{{unsecureBaseUrl}}/users?",
							"host": [
								"{{unsecureBaseUrl}}"
							],
							"path": [
								"users"
							],
							"query": [
								{
									"key": "page",
									"value": "0",
									"disabled": true
								},
								{
									"key": "size",
									"value": "3",
									"disabled": true
								},
								{
									"key": "email",
									"value": "a.buczylo@gmail.com",
									"disabled": true
								},
								{
									"key": "sort",
									"value": "email,asc",
									"disabled": true
								}
							]
						}
					},
					"response": []
				},
				{
					"name": "Get user",
					"request": {
						"method": "GET",
						"header": [
							{
								"key": "Authorization",
								"value": "Bearer eyJhbGciOiJIUzI1NiIsInR5cCI6IkpXVCJ9.eyJleHAiOjE1Nzk2NjE1MzMsInVzZXJfbmFtZSI6ImEuYnVjenlsb0BnbWFpbC5jb20iLCJhdXRob3JpdGllcyI6WyJST0xFX0FkbWluIiwiUk9MRV9Vc2VyIl0sImp0aSI6IjBmZGQxODIyLTdmNmEtNDk5OS05NTM2LTUzYzUxODMxYmMyMSIsImNsaWVudF9pZCI6ImNsaWVudCIsInNjb3BlIjpbInJlYWQiLCJ3cml0ZSJdfQ.rsaDPK8PZwIesfn1-d42jPz0SwRgRuioqgARlcyIAow",
								"type": "text"
							}
						],
						"url": {
							"raw": "{{unsecureBaseUrl}}/users/6aa52ce7-580b-4e72-b953-20e24c60ce6a",
							"host": [
								"{{unsecureBaseUrl}}"
							],
							"path": [
								"users",
								"6aa52ce7-580b-4e72-b953-20e24c60ce6a"
							]
						}
					},
					"response": []
				},
				{
					"name": "Update user",
					"request": {
						"method": "PUT",
						"header": [
							{
								"key": "Content-Type",
								"name": "Content-Type",
								"value": "application/json",
								"type": "text"
							},
							{
								"key": "Authorization",
								"value": "Bearer eyJhbGciOiJIUzI1NiIsInR5cCI6IkpXVCJ9.eyJleHAiOjE1Nzk2NjE1MzMsInVzZXJfbmFtZSI6ImEuYnVjenlsb0BnbWFpbC5jb20iLCJhdXRob3JpdGllcyI6WyJST0xFX0FkbWluIiwiUk9MRV9Vc2VyIl0sImp0aSI6IjBmZGQxODIyLTdmNmEtNDk5OS05NTM2LTUzYzUxODMxYmMyMSIsImNsaWVudF9pZCI6ImNsaWVudCIsInNjb3BlIjpbInJlYWQiLCJ3cml0ZSJdfQ.rsaDPK8PZwIesfn1-d42jPz0SwRgRuioqgARlcyIAow",
								"type": "text"
							}
						],
						"body": {
							"mode": "raw",
							"raw": "{\n\t\"id\": \"5e4a67bb-73b2-489e-b6fd-834d065c9d99\",\n\t\"email\": \"a.buczylo@gmail.com\",\n\t\"firstName\": \"Joanna\",\n\t\"lastName\": \"Buczyło\",\n\t\"favouriteRecipes\": [\n\t\t\"a17626e2-c13b-467e-a735-a32b05aed9f2\",\n\t\t\"7c765ee3-8e0b-415b-b81c-82aec3785e1f\"\n\t]\n}",
							"options": {
								"raw": {
									"language": "json"
								}
							}
						},
						"url": {
							"raw": "{{unsecureBaseUrl}}/users/5e4a67bb-73b2-489e-b6fd-834d065c9d99",
							"host": [
								"{{unsecureBaseUrl}}"
							],
							"path": [
								"users",
								"5e4a67bb-73b2-489e-b6fd-834d065c9d99"
							]
						}
					},
					"response": []
				},
				{
					"name": "Delete user",
					"request": {
						"method": "DELETE",
						"header": [
							{
								"key": "Authorization",
								"value": "Bearer eyJhbGciOiJIUzI1NiIsInR5cCI6IkpXVCJ9.eyJleHAiOjE1Nzk2NjE1MzMsInVzZXJfbmFtZSI6ImEuYnVjenlsb0BnbWFpbC5jb20iLCJhdXRob3JpdGllcyI6WyJST0xFX0FkbWluIiwiUk9MRV9Vc2VyIl0sImp0aSI6IjBmZGQxODIyLTdmNmEtNDk5OS05NTM2LTUzYzUxODMxYmMyMSIsImNsaWVudF9pZCI6ImNsaWVudCIsInNjb3BlIjpbInJlYWQiLCJ3cml0ZSJdfQ.rsaDPK8PZwIesfn1-d42jPz0SwRgRuioqgARlcyIAow",
								"type": "text"
							}
						],
						"url": {
							"raw": "{{unsecureBaseUrl}}/users/f3a1cc6b-1bca-42c7-8e25-7f90e9aa03a3",
							"host": [
								"{{unsecureBaseUrl}}"
							],
							"path": [
								"users",
								"f3a1cc6b-1bca-42c7-8e25-7f90e9aa03a3"
							]
						}
					},
					"response": []
				}
			],
			"protocolProfileBehavior": {}
		},
		{
			"name": "Roles",
			"item": [
				{
					"name": "Get roles",
					"request": {
						"method": "GET",
						"header": [
							{
								"key": "Authorization",
								"value": "Bearer eyJhbGciOiJIUzI1NiIsInR5cCI6IkpXVCJ9.eyJleHAiOjE1Nzk2NjE1MzMsInVzZXJfbmFtZSI6ImEuYnVjenlsb0BnbWFpbC5jb20iLCJhdXRob3JpdGllcyI6WyJST0xFX0FkbWluIiwiUk9MRV9Vc2VyIl0sImp0aSI6IjBmZGQxODIyLTdmNmEtNDk5OS05NTM2LTUzYzUxODMxYmMyMSIsImNsaWVudF9pZCI6ImNsaWVudCIsInNjb3BlIjpbInJlYWQiLCJ3cml0ZSJdfQ.rsaDPK8PZwIesfn1-d42jPz0SwRgRuioqgARlcyIAow",
								"type": "text"
							}
						],
						"url": {
							"raw": "{{unsecureBaseUrl}}/roles?",
							"host": [
								"{{unsecureBaseUrl}}"
							],
							"path": [
								"roles"
							],
							"query": [
								{
									"key": "page",
									"value": "0",
									"disabled": true
								},
								{
									"key": "size",
									"value": "3",
									"disabled": true
								},
								{
									"key": "name",
									"value": "user",
									"disabled": true
								},
								{
									"key": "sort",
									"value": "name,asc",
									"disabled": true
								}
							]
						}
					},
					"response": []
				},
				{
					"name": "Get role",
					"request": {
						"method": "GET",
						"header": [
							{
								"key": "Authorization",
								"value": "Bearer eyJhbGciOiJIUzI1NiIsInR5cCI6IkpXVCJ9.eyJleHAiOjE1Nzk2NjE1MzMsInVzZXJfbmFtZSI6ImEuYnVjenlsb0BnbWFpbC5jb20iLCJhdXRob3JpdGllcyI6WyJST0xFX0FkbWluIiwiUk9MRV9Vc2VyIl0sImp0aSI6IjBmZGQxODIyLTdmNmEtNDk5OS05NTM2LTUzYzUxODMxYmMyMSIsImNsaWVudF9pZCI6ImNsaWVudCIsInNjb3BlIjpbInJlYWQiLCJ3cml0ZSJdfQ.rsaDPK8PZwIesfn1-d42jPz0SwRgRuioqgARlcyIAow",
								"type": "text"
							}
						],
						"url": {
							"raw": "{{unsecureBaseUrl}}/roles/77acc064-ceb6-4b5a-a7eb-117952094777",
							"host": [
								"{{unsecureBaseUrl}}"
							],
							"path": [
								"roles",
								"77acc064-ceb6-4b5a-a7eb-117952094777"
							]
						}
					},
					"response": []
				},
				{
					"name": "Create role",
					"request": {
						"method": "POST",
						"header": [
							{
								"key": "Content-Type",
								"name": "Content-Type",
								"value": "application/json",
								"type": "text"
							},
							{
								"key": "Authorization",
								"value": "Bearer eyJhbGciOiJIUzI1NiIsInR5cCI6IkpXVCJ9.eyJleHAiOjE1Nzk2NjE1MzMsInVzZXJfbmFtZSI6ImEuYnVjenlsb0BnbWFpbC5jb20iLCJhdXRob3JpdGllcyI6WyJST0xFX0FkbWluIiwiUk9MRV9Vc2VyIl0sImp0aSI6IjBmZGQxODIyLTdmNmEtNDk5OS05NTM2LTUzYzUxODMxYmMyMSIsImNsaWVudF9pZCI6ImNsaWVudCIsInNjb3BlIjpbInJlYWQiLCJ3cml0ZSJdfQ.rsaDPK8PZwIesfn1-d42jPz0SwRgRuioqgARlcyIAow",
								"type": "text"
							}
						],
						"body": {
							"mode": "raw",
							"raw": "{\r\n    \"name\": \"Test\"\r\n}",
							"options": {
								"raw": {
									"language": "json"
								}
							}
						},
						"url": {
							"raw": "{{unsecureBaseUrl}}/roles",
							"host": [
								"{{unsecureBaseUrl}}"
							],
							"path": [
								"roles"
							]
						}
					},
					"response": []
				},
				{
					"name": "Update role",
					"request": {
						"method": "PUT",
						"header": [
							{
								"key": "Content-Type",
								"name": "Content-Type",
								"value": "application/json",
								"type": "text"
							},
							{
								"key": "Authorization",
								"value": "Bearer eyJhbGciOiJIUzI1NiIsInR5cCI6IkpXVCJ9.eyJleHAiOjE1Nzk2NjE1MzMsInVzZXJfbmFtZSI6ImEuYnVjenlsb0BnbWFpbC5jb20iLCJhdXRob3JpdGllcyI6WyJST0xFX0FkbWluIiwiUk9MRV9Vc2VyIl0sImp0aSI6IjBmZGQxODIyLTdmNmEtNDk5OS05NTM2LTUzYzUxODMxYmMyMSIsImNsaWVudF9pZCI6ImNsaWVudCIsInNjb3BlIjpbInJlYWQiLCJ3cml0ZSJdfQ.rsaDPK8PZwIesfn1-d42jPz0SwRgRuioqgARlcyIAow",
								"type": "text"
							}
						],
						"body": {
							"mode": "raw",
							"raw": "{\r\n    \"id\": \"718c74da-611c-4ff5-9bf5-aac6df8aa2a3\",\r\n    \"name\": \"Test2\"\r\n}",
							"options": {
								"raw": {
									"language": "json"
								}
							}
						},
						"url": {
							"raw": "{{unsecureBaseUrl}}/roles/718c74da-611c-4ff5-9bf5-aac6df8aa2a3",
							"host": [
								"{{unsecureBaseUrl}}"
							],
							"path": [
								"roles",
								"718c74da-611c-4ff5-9bf5-aac6df8aa2a3"
							]
						}
					},
					"response": []
				},
				{
					"name": "Delete role",
					"request": {
						"method": "DELETE",
						"header": [
							{
								"key": "Authorization",
								"value": "Bearer eyJhbGciOiJIUzI1NiIsInR5cCI6IkpXVCJ9.eyJleHAiOjE1Nzk2NjE1MzMsInVzZXJfbmFtZSI6ImEuYnVjenlsb0BnbWFpbC5jb20iLCJhdXRob3JpdGllcyI6WyJST0xFX0FkbWluIiwiUk9MRV9Vc2VyIl0sImp0aSI6IjBmZGQxODIyLTdmNmEtNDk5OS05NTM2LTUzYzUxODMxYmMyMSIsImNsaWVudF9pZCI6ImNsaWVudCIsInNjb3BlIjpbInJlYWQiLCJ3cml0ZSJdfQ.rsaDPK8PZwIesfn1-d42jPz0SwRgRuioqgARlcyIAow",
								"type": "text"
							}
						],
						"url": {
							"raw": "{{unsecureBaseUrl}}/roles/718c74da-611c-4ff5-9bf5-aac6df8aa2a3",
							"host": [
								"{{unsecureBaseUrl}}"
							],
							"path": [
								"roles",
								"718c74da-611c-4ff5-9bf5-aac6df8aa2a3"
							]
						}
					},
					"response": []
				}
			],
			"protocolProfileBehavior": {}
		},
		{
			"name": "Recipe categories",
			"item": [
				{
					"name": "Get recipe categories",
					"request": {
						"method": "GET",
						"header": [],
						"url": {
							"raw": "{{unsecureBaseUrl}}/recipeCategories?",
							"host": [
								"{{unsecureBaseUrl}}"
							],
							"path": [
								"recipeCategories"
							],
							"query": [
								{
									"key": "page",
									"value": "0",
									"disabled": true
								},
								{
									"key": "size",
									"value": "3",
									"disabled": true
								},
								{
									"key": "name",
									"value": "main-dishes",
									"disabled": true
								},
								{
									"key": "polishName",
									"value": "dania główne",
									"disabled": true
								},
								{
									"key": "sort",
									"value": "name,asc",
									"disabled": true
								}
							]
						}
					},
					"response": []
				},
				{
					"name": "Get recipe category",
					"request": {
						"method": "GET",
						"header": [
							{
								"key": "Authorization",
								"value": "Bearer eyJhbGciOiJIUzI1NiIsInR5cCI6IkpXVCJ9.eyJleHAiOjE1Nzk2NjExMjUsInVzZXJfbmFtZSI6ImEuYnVjenlsbzFAZ21haWwuY29tIiwiYXV0aG9yaXRpZXMiOlsiUk9MRV9Vc2VyIl0sImp0aSI6IjhmMWFlNGFiLTJmYzItNDljMi1hNDViLWNhYTc4MzkwMTI0MyIsImNsaWVudF9pZCI6ImNsaWVudCIsInNjb3BlIjpbInJlYWQiLCJ3cml0ZSJdfQ.7cJxIw4HoKn72pXu4aqLEArprBrEnit0SoA2fN_qgcM",
								"type": "text"
							}
						],
						"url": {
							"raw": "{{unsecureBaseUrl}}/recipeCategories/5da5c8db-3324-4ec7-83c0-717940deda8d",
							"host": [
								"{{unsecureBaseUrl}}"
							],
							"path": [
								"recipeCategories",
								"5da5c8db-3324-4ec7-83c0-717940deda8d"
							]
						}
					},
					"response": []
				},
				{
					"name": "Create recipe category",
					"request": {
						"method": "POST",
						"header": [
							{
								"key": "Content-Type",
								"name": "Content-Type",
								"value": "application/json",
								"type": "text"
							},
							{
								"key": "Authorization",
								"value": "Bearer eyJhbGciOiJIUzI1NiIsInR5cCI6IkpXVCJ9.eyJleHAiOjE1Nzk2NjE0MDYsInVzZXJfbmFtZSI6ImEuYnVjenlsb0BnbWFpbC5jb20iLCJhdXRob3JpdGllcyI6WyJST0xFX0FkbWluIiwiUk9MRV9Vc2VyIl0sImp0aSI6ImEyZjMxNDkyLWE5ZDUtNDZjMS04MTNkLTI1ZjM0ZmJiMDY2NCIsImNsaWVudF9pZCI6ImNsaWVudCIsInNjb3BlIjpbInJlYWQiLCJ3cml0ZSJdfQ.8jxWmXXHPd55r2e_sTikmP7-QWPG2gVlWN2XIQOxdn8",
								"type": "text"
							}
						],
						"body": {
							"mode": "raw",
							"raw": "{\r\n\t\"name\": \"Test\",\r\n\t\"polishName\": \"Test\",\r\n\t\"parentId\": null\r\n}",
							"options": {
								"raw": {
									"language": "json"
								}
							}
						},
						"url": {
							"raw": "{{unsecureBaseUrl}}/recipeCategories",
							"host": [
								"{{unsecureBaseUrl}}"
							],
							"path": [
								"recipeCategories"
							]
						}
					},
					"response": []
				},
				{
					"name": "Update recipe category",
					"request": {
						"method": "PUT",
						"header": [
							{
								"key": "Content-Type",
								"name": "Content-Type",
								"value": "application/json",
								"type": "text"
							},
							{
								"key": "Authorization",
								"value": "Bearer eyJhbGciOiJIUzI1NiIsInR5cCI6IkpXVCJ9.eyJleHAiOjE1Nzk2NjE1MzMsInVzZXJfbmFtZSI6ImEuYnVjenlsb0BnbWFpbC5jb20iLCJhdXRob3JpdGllcyI6WyJST0xFX0FkbWluIiwiUk9MRV9Vc2VyIl0sImp0aSI6IjBmZGQxODIyLTdmNmEtNDk5OS05NTM2LTUzYzUxODMxYmMyMSIsImNsaWVudF9pZCI6ImNsaWVudCIsInNjb3BlIjpbInJlYWQiLCJ3cml0ZSJdfQ.rsaDPK8PZwIesfn1-d42jPz0SwRgRuioqgARlcyIAow",
								"type": "text"
							}
						],
						"body": {
							"mode": "raw",
							"raw": "{\r\n\t\"id\": \"7dc28770-d265-40df-9eb0-d9105c7b2839\",\r\n\t\"name\": \"Test2\",\r\n\t\"polishName\": \"Test2\",\r\n\t\"parentId\": null\r\n}",
							"options": {
								"raw": {
									"language": "json"
								}
							}
						},
						"url": {
							"raw": "{{unsecureBaseUrl}}/recipeCategories/7dc28770-d265-40df-9eb0-d9105c7b2839",
							"host": [
								"{{unsecureBaseUrl}}"
							],
							"path": [
								"recipeCategories",
								"7dc28770-d265-40df-9eb0-d9105c7b2839"
							]
						}
					},
					"response": []
				},
				{
					"name": "Delete recipe category",
					"request": {
						"method": "DELETE",
						"header": [
							{
								"key": "Authorization",
								"value": "Bearer eyJhbGciOiJIUzI1NiIsInR5cCI6IkpXVCJ9.eyJleHAiOjE1Nzk2NjE1MzMsInVzZXJfbmFtZSI6ImEuYnVjenlsb0BnbWFpbC5jb20iLCJhdXRob3JpdGllcyI6WyJST0xFX0FkbWluIiwiUk9MRV9Vc2VyIl0sImp0aSI6IjBmZGQxODIyLTdmNmEtNDk5OS05NTM2LTUzYzUxODMxYmMyMSIsImNsaWVudF9pZCI6ImNsaWVudCIsInNjb3BlIjpbInJlYWQiLCJ3cml0ZSJdfQ.rsaDPK8PZwIesfn1-d42jPz0SwRgRuioqgARlcyIAow",
								"type": "text"
							}
						],
						"url": {
							"raw": "{{unsecureBaseUrl}}/recipeCategories/7dc28770-d265-40df-9eb0-d9105c7b2839",
							"host": [
								"{{unsecureBaseUrl}}"
							],
							"path": [
								"recipeCategories",
								"7dc28770-d265-40df-9eb0-d9105c7b2839"
							]
						}
					},
					"response": []
				}
			],
			"protocolProfileBehavior": {}
		},
		{
			"name": "Recipes",
			"item": [
				{
					"name": "Get recipes",
					"request": {
						"method": "GET",
						"header": [],
						"url": {
							"raw": "{{unsecureBaseUrl}}/recipes?",
							"host": [
								"{{unsecureBaseUrl}}"
							],
							"path": [
								"recipes"
							],
							"query": [
								{
									"key": "page",
									"value": "0",
									"disabled": true
								},
								{
									"key": "size",
									"value": "3",
									"disabled": true
								},
								{
									"key": "phrase",
									"value": "naleś",
									"disabled": true
								},
								{
									"key": "portionsAmount",
									"value": "4",
									"disabled": true
								},
								{
									"key": "difficultyLevel",
									"value": "EASY",
									"disabled": true
								},
								{
									"key": "preparationTimeFrom",
									"value": "10",
									"disabled": true
								},
								{
									"key": "preparationTimeTo",
									"value": "30",
									"disabled": true
								},
								{
									"key": "includedIngredients",
									"value": "mąka",
									"disabled": true
								},
								{
									"key": "excludedIngredients",
									"value": "mąka",
									"disabled": true
								},
								{
									"key": "recipeCategoryId",
									"value": "596ff37e-b426-4469-bab4-3348cfbac721",
									"disabled": true
								},
								{
									"key": "sort",
									"value": "name,asc",
									"disabled": true
								}
							]
						}
					},
					"response": []
				},
				{
					"name": "Get recipe",
					"request": {
						"method": "GET",
						"header": [],
						"url": {
							"raw": "{{unsecureBaseUrl}}/recipes/228c33f8-4a6a-4fd0-bace-e582a7bfec5f",
							"host": [
								"{{unsecureBaseUrl}}"
							],
							"path": [
								"recipes",
								"228c33f8-4a6a-4fd0-bace-e582a7bfec5f"
							]
						}
					},
					"response": []
				},
				{
					"name": "Create recipe",
					"request": {
						"method": "POST",
						"header": [
							{
								"key": "Content-Type",
								"name": "Content-Type",
								"value": "application/json",
								"type": "text"
							},
							{
								"key": "Authorization",
								"value": "Bearer eyJhbGciOiJIUzI1NiIsInR5cCI6IkpXVCJ9.eyJleHAiOjE1Nzk2NjE1MzMsInVzZXJfbmFtZSI6ImEuYnVjenlsb0BnbWFpbC5jb20iLCJhdXRob3JpdGllcyI6WyJST0xFX0FkbWluIiwiUk9MRV9Vc2VyIl0sImp0aSI6IjBmZGQxODIyLTdmNmEtNDk5OS05NTM2LTUzYzUxODMxYmMyMSIsImNsaWVudF9pZCI6ImNsaWVudCIsInNjb3BlIjpbInJlYWQiLCJ3cml0ZSJdfQ.rsaDPK8PZwIesfn1-d42jPz0SwRgRuioqgARlcyIAow",
								"type": "text"
							}
						],
						"body": {
							"mode": "raw",
							"raw": "{\n    \"name\": \"Naleśniki\",\n    \"portionsAmount\": 4,\n    \"difficultyLevel\": \"EASY\",\n    \"preparationTime\": 20,\n    \"ingredients\": \"mąka,woda,jajko\",\n    \"description\": \"Wyśmienite, puszyste naleśniczki\",\n    \"userId\": \"6aa52ce7-580b-4e72-b953-20e24c60ce6a\",\n    \"recipeCategories\": [\n        \"5da5c8db-3324-4ec7-83c0-717940deda8d\"\n    ]\n}",
							"options": {
								"raw": {
									"language": "json"
								}
							}
						},
						"url": {
							"raw": "{{unsecureBaseUrl}}/recipes",
							"host": [
								"{{unsecureBaseUrl}}"
							],
							"path": [
								"recipes"
							]
						}
					},
					"response": []
				},
				{
					"name": "Update recipe",
					"request": {
						"method": "PUT",
						"header": [
							{
								"key": "Content-Type",
								"name": "Content-Type",
								"value": "application/json",
								"type": "text"
							},
							{
								"key": "Authorization",
								"value": "Bearer eyJhbGciOiJIUzI1NiIsInR5cCI6IkpXVCJ9.eyJleHAiOjE1Nzk2NjI0NDQsInVzZXJfbmFtZSI6ImEuYnVjenlsbzJAZ21haWwuY29tIiwiYXV0aG9yaXRpZXMiOlsiUk9MRV9Vc2VyIl0sImp0aSI6IjdmYTdjMGMxLTg2NDAtNGQ4Zi1hMzlmLWVlZDg1ZWU5YmRmOCIsImNsaWVudF9pZCI6ImNsaWVudCIsInNjb3BlIjpbInJlYWQiLCJ3cml0ZSJdfQ.vQ4U76_ayOnEugnyyXJCjZxrqucxVElCSCFxzlVZ2nI",
								"type": "text"
							}
						],
						"body": {
							"mode": "raw",
							"raw": "{\r\n    \"id\": \"228c33f8-4a6a-4fd0-bace-e582a7bfec5f\",\r\n    \"name\": \"Naleśniki2\",\r\n    \"portionsAmount\": 5,\r\n    \"difficultyLevel\": \"EASY\",\r\n    \"preparationTime\": 20,\r\n    \"ingredients\": \"mąka,woda,jajko\",\r\n    \"description\": \"Wyśmienite, puszyste naleśniczki\",\r\n    \"userId\": \"6aa52ce7-580b-4e72-b953-20e24c60ce6a\",\r\n    \"recipeCategories\": [\r\n        \"5da5c8db-3324-4ec7-83c0-717940deda8d\"\r\n    ]\r\n}",
							"options": {
								"raw": {
									"language": "json"
								}
							}
						},
						"url": {
							"raw": "{{unsecureBaseUrl}}/recipes/228c33f8-4a6a-4fd0-bace-e582a7bfec5f",
							"host": [
								"{{unsecureBaseUrl}}"
							],
							"path": [
								"recipes",
								"228c33f8-4a6a-4fd0-bace-e582a7bfec5f"
							]
						}
					},
					"response": []
				},
				{
					"name": "Delete recipe",
					"request": {
						"method": "DELETE",
						"header": [
							{
								"key": "Authorization",
								"value": "Bearer eyJhbGciOiJIUzI1NiIsInR5cCI6IkpXVCJ9.eyJleHAiOjE1Nzk2NjI1MzcsInVzZXJfbmFtZSI6ImEuYnVjenlsbzFAZ21haWwuY29tIiwiYXV0aG9yaXRpZXMiOlsiUk9MRV9Vc2VyIl0sImp0aSI6IjU1ODBhZjYwLTliOWEtNDNkMS04YmIxLTM1ZmM0ZjJiMmQ3NyIsImNsaWVudF9pZCI6ImNsaWVudCIsInNjb3BlIjpbInJlYWQiLCJ3cml0ZSJdfQ.ftiiNo2vSr5kVOlmdLr9q9v1mT8s5ghonLp-e-ljw2g",
								"type": "text"
							}
						],
						"url": {
							"raw": "{{unsecureBaseUrl}}/recipes/228c33f8-4a6a-4fd0-bace-e582a7bfec5f",
							"host": [
								"{{unsecureBaseUrl}}"
							],
							"path": [
								"recipes",
								"228c33f8-4a6a-4fd0-bace-e582a7bfec5f"
							]
						}
					},
					"response": []
				}
			],
			"protocolProfileBehavior": {}
		},
		{
			"name": "UserRecipeOninions",
			"item": [
				{
					"name": "Get user role opinions",
					"request": {
						"method": "GET",
						"header": [],
						"url": {
							"raw": "{{unsecureBaseUrl}}/userRecipeOpinions?",
							"host": [
								"{{unsecureBaseUrl}}"
							],
							"path": [
								"userRecipeOpinions"
							],
							"query": [
								{
									"key": "page",
									"value": "0",
									"disabled": true
								},
								{
									"key": "size",
									"value": "3",
									"disabled": true
								},
								{
									"key": "recipeId",
									"value": "c5e9b93d-5c2d-466d-9be4-54ca046149f5",
									"disabled": true
								},
								{
									"key": "sort",
									"value": "email,asc",
									"disabled": true
								}
							]
						}
					},
					"response": []
				},
				{
					"name": "Get user role opinion",
					"request": {
						"method": "GET",
						"header": [
							{
								"key": "Authorization",
								"value": "Bearer eyJhbGciOiJIUzI1NiIsInR5cCI6IkpXVCJ9.eyJleHAiOjE1Nzk2NjI2MTEsInVzZXJfbmFtZSI6ImEuYnVjenlsbzFAZ21haWwuY29tIiwiYXV0aG9yaXRpZXMiOlsiUk9MRV9Vc2VyIl0sImp0aSI6ImRhZGFjMTA4LTUyOTEtNGVkMC1hZTQwLTBjNjk4YTgwYWJkMCIsImNsaWVudF9pZCI6ImNsaWVudCIsInNjb3BlIjpbInJlYWQiLCJ3cml0ZSJdfQ.kvp-Hhsb-NgdTo3KmCfVwteWACYazDr3jfuQcuSbedE",
								"type": "text"
							}
						],
						"url": {
							"raw": "{{unsecureBaseUrl}}/userRecipeOpinions/5e5700c9-9d81-4899-a8cf-d647b33d436c",
							"host": [
								"{{unsecureBaseUrl}}"
							],
							"path": [
								"userRecipeOpinions",
								"5e5700c9-9d81-4899-a8cf-d647b33d436c"
							]
						}
					},
					"response": []
				},
				{
					"name": "Create user role opinion",
					"request": {
						"method": "POST",
						"header": [
							{
								"key": "Content-Type",
								"name": "Content-Type",
								"value": "application/json",
								"type": "text"
							},
							{
								"key": "Authorization",
								"value": "Bearer eyJhbGciOiJIUzI1NiIsInR5cCI6IkpXVCJ9.eyJleHAiOjE1Nzk2NjI2MTEsInVzZXJfbmFtZSI6ImEuYnVjenlsbzFAZ21haWwuY29tIiwiYXV0aG9yaXRpZXMiOlsiUk9MRV9Vc2VyIl0sImp0aSI6ImRhZGFjMTA4LTUyOTEtNGVkMC1hZTQwLTBjNjk4YTgwYWJkMCIsImNsaWVudF9pZCI6ImNsaWVudCIsInNjb3BlIjpbInJlYWQiLCJ3cml0ZSJdfQ.kvp-Hhsb-NgdTo3KmCfVwteWACYazDr3jfuQcuSbedE",
								"type": "text"
							}
						],
						"body": {
							"mode": "raw",
							"raw": "{\n\t\"rating\": 5,\n\t\"comment\": \"Zajebiste naleśniczki\",\n\t\"userId\": \"6aa52ce7-580b-4e72-b953-20e24c60ce6a\",\n\t\"recipeId\": \"bec35055-648b-45d0-a232-917e24c32217\"\n}",
							"options": {
								"raw": {
									"language": "json"
								}
							}
						},
						"url": {
							"raw": "{{unsecureBaseUrl}}/userRecipeOpinions",
							"host": [
								"{{unsecureBaseUrl}}"
							],
							"path": [
								"userRecipeOpinions"
							]
						}
					},
					"response": []
				},
				{
					"name": "Update user role opinion",
					"request": {
						"method": "PUT",
						"header": [
							{
								"key": "Content-Type",
								"name": "Content-Type",
								"value": "application/json",
								"type": "text"
							},
							{
								"key": "Authorization",
								"value": "Bearer eyJhbGciOiJIUzI1NiIsInR5cCI6IkpXVCJ9.eyJleHAiOjE1Nzk2NjI3MzMsInVzZXJfbmFtZSI6ImEuYnVjenlsbzFAZ21haWwuY29tIiwiYXV0aG9yaXRpZXMiOlsiUk9MRV9Vc2VyIl0sImp0aSI6IjQxM2E1NDU1LTIwMzgtNDk4NS05YWExLTAwZDNiOGViYzg0MyIsImNsaWVudF9pZCI6ImNsaWVudCIsInNjb3BlIjpbInJlYWQiLCJ3cml0ZSJdfQ.E3WpshJ8hkjao0PifnrwRm2WyuY34Plijz-T73vsDq4",
								"type": "text"
							}
						],
						"body": {
							"mode": "raw",
							"raw": "{\n    \"id\": \"5e5700c9-9d81-4899-a8cf-d647b33d436c\",\n    \"rating\": 2,\n    \"comment\": \"Zajebiste naleśniczki\",\n    \"userId\": \"6aa52ce7-580b-4e72-b953-20e24c60ce6a\",\n    \"recipeId\": \"bec35055-648b-45d0-a232-917e24c32217\"\n}",
							"options": {
								"raw": {
									"language": "json"
								}
							}
						},
						"url": {
							"raw": "{{unsecureBaseUrl}}/userRecipeOpinions/5e5700c9-9d81-4899-a8cf-d647b33d436c",
							"host": [
								"{{unsecureBaseUrl}}"
							],
							"path": [
								"userRecipeOpinions",
								"5e5700c9-9d81-4899-a8cf-d647b33d436c"
							]
						}
					},
					"response": []
				},
				{
					"name": "Delete user role opinion",
					"request": {
						"method": "DELETE",
						"header": [
							{
								"key": "Authorization",
								"value": "Bearer eyJhbGciOiJIUzI1NiIsInR5cCI6IkpXVCJ9.eyJleHAiOjE1Nzk2NjI3MzMsInVzZXJfbmFtZSI6ImEuYnVjenlsbzFAZ21haWwuY29tIiwiYXV0aG9yaXRpZXMiOlsiUk9MRV9Vc2VyIl0sImp0aSI6IjQxM2E1NDU1LTIwMzgtNDk4NS05YWExLTAwZDNiOGViYzg0MyIsImNsaWVudF9pZCI6ImNsaWVudCIsInNjb3BlIjpbInJlYWQiLCJ3cml0ZSJdfQ.E3WpshJ8hkjao0PifnrwRm2WyuY34Plijz-T73vsDq4",
								"type": "text"
							}
						],
						"url": {
							"raw": "{{unsecureBaseUrl}}/userRecipeOpinions/5e5700c9-9d81-4899-a8cf-d647b33d436c",
							"host": [
								"{{unsecureBaseUrl}}"
							],
							"path": [
								"userRecipeOpinions",
								"5e5700c9-9d81-4899-a8cf-d647b33d436c"
							]
						}
					},
					"response": []
				}
			],
			"protocolProfileBehavior": {}
		}
	],
	"event": [
		{
			"listen": "prerequest",
			"script": {
				"id": "d91449be-6787-4444-87da-650e91e10799",
				"type": "text/javascript",
				"exec": [
					""
				]
			}
		},
		{
			"listen": "test",
			"script": {
				"id": "1ec215df-670d-4498-953d-02c7726b6425",
				"type": "text/javascript",
				"exec": [
					""
				]
			}
		}
	],
	"variable": [
		{
			"id": "fcafe6bf-3570-4a47-bb73-4193fe8c13f6",
			"key": "unsecureBaseUrl",
			"value": "http://localhost:8080",
			"type": "string"
		}
	],
	"protocolProfileBehavior": {}
}